Chapter 5 Sites and states | Bayesian analysis of capture-recapture data with hidden Markov models
…
5.5.1 Titis data

To illustrate this section, we will consider data collected between 1940 and 1957 by Lance Richdale on the Sooty shearwaters (aka titis): More details. Plus a picture of titi.

titis <- read_csv2(here::here("dat", "titis.csv"), col_names = FALSE)
titis %>%
  rename(year_1942 = X1,
         year_1943 = X2,
         year_1944 = X3,
         year_1949 = X4,
         year_1952 = X5,
         year_1953 = X6,
         year_1956 = X7)
## # A tibble: 1,013 × 7
##    year_1942 year_1943 year_1944 year_1949 year_1952
##        <dbl>     <dbl>     <dbl>     <dbl>     <dbl>
##  1         0         0         0         0         0
##  2         0         0         0         0         0
##  3         0         0         0         0         0
##  4         0         0         0         0         0
##  5         0         0         0         0         0
##  6         0         0         0         0         0
##  7         0         0         0         0         0
##  8         0         0         0         0         0
##  9         0         0         0         0         0
## 10         0         0         0         0         0
## # ℹ 1,003 more rows
## # ℹ 2 more variables: year_1953 <dbl>, year_1956 <dbl>
…
                1, 0, 1, 0, 1, 0, 2,
                1, 0, 1, 0, 1, 0, 2,
                2, 2, 0, 1, 0, 2, 1,
                2, 2, 0, 1, 0, 2, 1,
                2, 2, 0, 1, 0, 2, 1,
                2, 2, 0, 1, 0, 2, 1,
                2, 1, 0, 2, 0, 1, 1,
                2, 1, 0, 2, 0, 1, 1,
                2, 1, 0, 2, 0, 1, 1,
                2, 1, 0, 2, 0, 1, 1),
              byrow = T,
              ncol = 7)
dat %>%
  as_tibble()
## # A tibble: 32 × 7
##       V1    V2    V3    V4    V5    V6    V7
##    <dbl> <dbl> <dbl> <dbl> <dbl> <dbl> <dbl>
##  1     2     0     2     1     2     0     2
##  2     2     0     2     1     2     0     2
##  3     2     0     2     1     2     0     2
##  4     2     0     2     1     2     0     2
##  5     1     1     1     0     1     0     1
##  6     1     1     1     0     1     0     1
##  7     1     1     1     0     1     0     1
##  8     1     1     1     0     1     0     1
##  9     2     0     2     0     2     0     1
## 10     2     0     2     0     2     0     1
## # ℹ 22 more rows
…
