Chapter 3 Hidden Markov models | Bayesian analysis of capture-recapture data with hidden Markov models
…
Because the binomial distribution is just a sum of independent Bernoulli outcomes, you can rewrite this model as:

\[\begin{align*}
   z_i &\sim \text{Bernoulli}(\phi), \; i = 1, \ldots, N &\text{[likelihood]}
   \\
  \phi &\sim \text{Beta}(1, 1) &\text{[prior for }\phi \text{]} \\
\end{align*}\]

It is like flipping a coin for each individual and get a survivor with probability \(\phi\).

In this set up, we consider a single winter. But for many species, we need to collect data on the long term to get a representative estimate of survival. Therefore what if we had say \(T = 5\) winters?

Let us denote \(z_{i,t} = 1\) if individual \(i\) alive at winter \(t\), and \(z_{i,t} = 2\) if dead. Then longitudinal data look like in the table below. Each row is an individual \(i\), and columns are for winters \(t\), or sampling occasions. Variable \(z\) is indexed by both \(i\) and \(t\), and takes value 1 if individual \(i\) is alive in winter \(t\), and 2 otherwise.

## # A tibble: 57 × 6
##       id `winter 1` `winter 2` `winter 3` `winter 4`
##    <int>      <int>      <int>      <int>      <int>
##  1     1          1          1          1          1
##  2     2          1          1          1          1
##  3     3          1          1          1          1
##  4     4          1          1          1          1
##  5     5          1          1          1          1
##  6     6          1          1          2          2
##  7     7          1          1          1          1
##  8     8          1          2          2          2
##  9     9          1          1          1          1
## 10    10          1          2          2          2
## # ℹ 47 more rows
## # ℹ 1 more variable: `winter 5` <int>
…
We could replace dcat() by dbern() everywhere in the code because we have binary events alive/dead. Would it make any difference? Although dcat() uses less efficient samplers than dbern(), dcat() is convenient for model building to accomodate more than two outcomes, a feature that will become handy in the next chapters.

3.6 Hidden Markov models

3.6.1 Capture-recapture data

Unfortunately, the data with alive and dead states is the data we wish we had. In real life, animals cannot be monitored exhaustively, like humans in a medical trial. This is why we use capture-recapture protocols, in which animals are captured, individually marked, and released alive. Then, these animals may be detected again, or go undetected. Whenever animals go undetected, it might be that they were alive but missed, or because they were dead and therefore could not be detected. This issue is usually referred to as that of imperfect detection. As a consequence of imperfect detection, the Markov process for survival is only partially observed: You know an animal is alive when you detect it, but when an animal goes undetected, whether it is alive or dead is unknown to you. This is where hidden Markov models (HMMs) come in.

Let’s get back to the data we had in the previous section. The truth is in \(z\) which contains the fate of all individuals with \(z = 1\) for alive, and \(z = 2\) for dead:

## # A tibble: 57 × 6
##       id `winter 1` `winter 2` `winter 3` `winter 4`
##    <int>      <int>      <int>      <int>      <int>
##  1     1          1          1          1          1
##  2     2          1          1          1          1
##  3     3          1          1          1          1
##  4     4          1          1          1          1
##  5     5          1          1          1          1
##  6     6          1          1          2          2
##  7     7          1          1          1          1
##  8     8          1          2          2          2
##  9     9          1          1          1          1
## 10    10          1          2          2          2
## # ℹ 47 more rows
## # ℹ 1 more variable: `winter 5` <int>

Unfortunately, we have only partial access to \(z\). What we do observe is \(y\) the detections and non-detections. How are \(z\) and \(y\) connected?

The easiest connection is with dead animals which go undetected for sure. Therefore when an animal is dead i.e. \(z = 2\), it cannot be detected, therefore \(y = 0\):

## # A tibble: 57 × 6
##       id `winter 1` `winter 2` `winter 3` `winter 4`
##    <int>      <int>      <int>      <int>      <int>
##  1     1          1          1          1          1
##  2     2          1          1          1          1
##  3     3          1          1          1          1
##  4     4          1          1          1          1
##  5     5          1          1          1          1
##  6     6          1          1          0          0
##  7     7          1          1          1          1
##  8     8          1          0          0          0
##  9     9          1          1          1          1
## 10    10          1          0          0          0
## # ℹ 47 more rows
## # ℹ 1 more variable: `winter 5` <int>

Now alive animals may be detected or not. If an animal is alive \(z = 1\), it is detected \(y = 1\) with probability \(p\) or not \(y = 0\) with probability \(1-p\). In our example, first detection coincides with first winter for all individuals.

## # A tibble: 57 × 6
##       id `winter 1` `winter 2` `winter 3` `winter 4`
##    <int>      <dbl>      <dbl>      <dbl>      <dbl>
##  1     1          1          0          0          0
##  2     2          1          0          1          0
##  3     3          1          0          0          0
##  4     4          1          1          1          1
##  5     5          1          1          1          1
##  6     6          1          0          0          0
##  7     7          1          0          1          1
##  8     8          1          1          1          1
##  9     9          1          1          1          1
## 10    10          1          1          0          0
## # ℹ 47 more rows
## # ℹ 1 more variable: `winter 5` <dbl>
…
